<svg width="30" height="28" viewBox="0 0 30 28" fill="none" xmlns="http://www.w3.org/2000/svg">
<path d="M24.1071 15.3424C24.9386 15.344 25.77 15.5047 26.5393 15.8203L27.5882 14.7628C27.6064 14.736 27.6273 14.7097 27.6514 14.6856C29.1659 13.1572 30 11.1269 30 8.96796C30 4.50493 26.3952 0.87439 21.9643 0.87439C19.8295 0.87439 17.8189 1.71278 16.3029 3.23475C15.6027 3.9376 14.3973 3.9376 13.6971 3.23475C12.1805 1.71278 10.1705 0.87439 8.03571 0.87439C3.60482 0.87439 0 4.50493 0 8.96796C0 11.1339 0.838928 13.169 2.3625 14.699L14.4857 26.9042C14.767 27.1871 15.2598 27.1871 15.5411 26.9042L18.1773 24.2476C18.015 23.8603 17.8896 23.4537 17.805 23.0326C17.7996 23.0064 17.798 22.9796 17.7932 22.9539C17.212 19.8971 19.0318 16.7551 21.9584 15.7094C22.0848 15.6644 22.2134 15.6231 22.3425 15.5862C22.9152 15.4217 23.5109 15.3414 24.1071 15.3424Z" fill="#FF7931"/>
<path d="M26.3977 16.9571C25.7002 16.6126 24.925 16.416 24.1177 16.4112C21.2383 16.3946 18.7456 18.8707 18.7515 21.7501C18.7574 24.6709 21.182 27.125 24.1075 27.125C27.0615 27.125 29.4647 24.7218 29.4647 21.7678C29.4642 19.6935 28.1865 17.84 26.3977 16.9571ZM27.3213 22.3035H24.6427V24.9821C24.6427 25.2778 24.4027 25.5178 24.107 25.5178C23.8113 25.5178 23.5713 25.2778 23.5713 24.9821V22.3035H20.8927C20.597 22.3035 20.357 22.0635 20.357 21.7678C20.357 21.4721 20.597 21.2321 20.8927 21.2321H23.5713V18.5535C23.5713 18.2578 23.8113 18.0178 24.107 18.0178C24.4027 18.0178 24.6427 18.2578 24.6427 18.5535V21.2321H27.3213C27.617 21.2321 27.857 21.4721 27.857 21.7678C27.857 22.0635 27.617 22.3035 27.3213 22.3035Z" fill="#FF7931"/>
</svg>